Using the queuecomputer package
…
arrivals <- cumsum(rexp(100))

head(arrivals)

## [1] 2.262266 5.986274 6.280253 6.347830 7.185039 7.708771

service <- rexp(100)

departures <- queue_step(arrivals = arrivals, service = service)

print(departures, n = 6)

## # A tibble: 100 × 6
##   arrivals   service departures      waiting system_time server
##      <dbl>     <dbl>      <dbl>        <dbl>       <dbl>  <dbl>
## 1 2.262266 0.1923963   2.454662 8.326673e-17   0.1923963      1
## 2 5.986274 1.7214155   7.707689 2.220446e-16   1.7214155      1
## 3 6.280253 0.9915863   8.699276 1.427436e+00   2.4190226      1
## 4 6.347830 0.9092315   9.608507 2.351445e+00   3.2606767      1
## 5 7.185039 0.1131049   9.721612 2.423468e+00   2.5365734      1
## 6 7.708771 0.7935246  10.515137 2.012842e+00   2.8063661      1
## # ... with 94 more rows
…
## $x
## [1]  10  50 100
## 
## $y
## [1] 0 1 3 1
## 
## attr(,"class")
## [1] "list"           "server.stepfun"

departures <- queue_step(arrivals = arrivals, service = service, servers = resource_schedule)

print(departures, n = 6)

## # A tibble: 100 × 6
##   arrivals   service departures  waiting system_time server
##      <dbl>     <dbl>      <dbl>    <dbl>       <dbl>  <dbl>
## 1 2.262266 0.1923963   10.19240 7.737734    7.930131      1
## 2 5.986274 1.7214155   11.91381 4.206122    5.927538      1
## 3 6.280253 0.9915863   12.90540 5.633559    6.625145      1
## 4 6.347830 0.9092315   13.81463 6.557568    7.466799      1
## 5 7.185039 0.1131049   13.92773 6.629591    6.742696      1
## 6 7.708771 0.7935246   14.72126 6.218964    7.012489      1
## # ... with 94 more rows
…
