M/M/k queues
…
## [1] 3.2

W # Mean response time (time in system)

## [1] 4

Observed

MM1 <- queue_step(arrivals = arrivals, service = service, servers = k)

MM1_summary <- summary(MM1)

MM1_summary$slength_sum

## # A tibble: 52 x 2
##    queuelength proportion
##          <int>      <dbl>
##  1           0     0.200 
##  2           1     0.160 
##  3           2     0.128 
##  4           3     0.102 
##  5           4     0.0817
##  6           5     0.0655
##  7           6     0.0524
##  8           7     0.0420
##  9           8     0.0337
## 10           9     0.0270
## # ... with 42 more rows
…
## [1] 3.511236

W # Mean response time (time in system)

## [1] 6.011236

Observed

MM3_2 <- queue_step(arrivals = arrivals, service = service, servers = k)

MM3_2_summary <- summary(MM3_2)

MM3_2_summary$slength_sum

## # A tibble: 53 x 2
##    queuelength proportion
##          <int>      <dbl>
##  1           0     0.0450
##  2           1     0.113 
##  3           2     0.140 
##  4           3     0.118 
##  5           4     0.0980
##  6           5     0.0820
##  7           6     0.0679
##  8           7     0.0568
##  9           8     0.0471
## 10           9     0.0391
## # ... with 43 more rows
…
